<svg width="32" height="32" viewBox="0 0 512 512" fill="none" xmlns="http://www.w3.org/2000/svg">
<rect width="512" height="512" fill="#172F33"/>
<path d="M195.563 118.187C160.565 117.983 128.531 145.437 106.5 177.313L99.0002 169.812C134.5 108 192.5 81 240.5 81C260.803 81 280.602 88.8799 302.84 97.7307C326.519 107.155 352.964 117.68 385.727 120.964C387.492 121.046 389.251 121.089 391 121.089L406 121L410.5 129L338.858 181C383.389 181 432 217.93 432 272C432 361 352 436 256 436C196 436 104 400.5 104 303C104 215.264 173.416 165.224 227.118 126.512C228.583 125.456 230.036 124.409 231.475 123.369C220.971 120.397 209.275 118.187 195.563 118.187ZM240 126.001V234L344 158.5C296.678 146.67 241.582 126.578 240.033 126.012L240 126.001ZM192 170C161.531 196.25 151 230.632 151 271C151 302.06 159.594 336.156 176 361C190.911 343.959 192 323.761 192 301.5V170ZM240 252V292C240 329.626 225.086 340.45 188.813 366.776L188.792 366.791C186.919 368.151 184.988 369.552 183 371C205.21 396.205 234.219 411.87 272 413.798V234.403C261.216 238.583 250.469 244.395 240 252ZM288 229.378V413.761C344.481 410.364 391.207 370.901 391.207 302.99C391.207 262.094 358.37 226 316 226C306.841 226 297.452 227.09 288 229.378ZM256 168L272 152L288 168L272 184L256 168Z" fill="#EBE6E5"/>
<path d="M275.688 281.079C293.502 293.029 314.937 300 338 300C363.574 300 387.146 291.429 406 277.002V296.464C386.298 308.841 362.985 316 338 316C315.379 316 294.128 310.132 275.688 299.835V281.079ZM336 336C357.978 336 378.663 341.539 396.733 351.298L380.7 361.276C367.007 355.309 351.89 352 336 352C313.794 352 293.097 358.463 275.688 369.61V351.072C293.658 341.454 314.192 336 336 336Z" fill="#EBE6E5"/>
</svg>
